{
	"iisSettings": {
		"windowsAuthentication": false,
		"anonymousAuthentication": true,
		"iisExpress": {
			"applicationUrl": "http://localhost:59243",
			"sslPort": 0
		}
	},
	"$schema": "http://json.schemastore.org/launchsettings.json",
	"profiles": {
		"IIS Express": {
			"commandName": "IISExpress",
			"launchBrowser": true,
			"launchUrl": "swagger",
			"environmentVariables": {
				"ASPNETCORE_ENVIRONMENT": "Development"
			}
		},
		"UniqueFurniture.API": {
			"commandName": "Project",
			"launchBrowser": true,
			"launchUrl": "swagger",
			"environmentVariables": {
				"ASPNETCORE_ENVIRONMENT": "Development"
			},
			"applicationUrl": "http://localhost:5002"
		},
		"Docker": {
			"commandName": "Docker",
			"launchBrowser": true,
			"launchUrl": "{Scheme}://localhost:{ServicePort}"
		}
	}
}